% N erw stdv q25 q75 median uwhi owhi boxwh
1 1000.0 2.082312945945946 0.6700160058393456 1.704171 2.410935 2.063634 0.6440250000000005 3.4710809999999994 0.2
2 2500.0 6.043938083333331 2.07470639241471 5.736054 6.410487 6.003331 4.7244045 7.422136499999999 0.2
3 5000.0 18.161396352941175 5.209523383385801 17.244972 19.496822 17.917166 13.867196999999999 22.874597 0.2
4 7500.0 35.062749342105256 2.1220940042431655 34.289245 35.754629 35.348752 32.091169 37.952705 0.2
5 10000.0 56.685125057142855 2.7807269216577035 55.970057 57.849959 56.759405 53.150203999999995 60.669812 0.2
