n	EX	Anzahl	sdv	EXsdv	Anzahl	kleiner	größer	EX10%	Anzahl	EXboxplot	Q025	Q050	Q075	a	b	min	max
20000.0	55.06837505	40.0	1.7843775584025505	54.82190396875	32.0	4.0	4.0	54.82190396875	32.0	54.681141135135135	53.833139	54.769729	55.39807	51.485742500000015	57.74546649999999	52.760508	60.750655	
20000.0	4.258429225	40.0	0.5326072225577442	4.061919133333333	30.0	2.0	8.0	4.17984653125	32.0	4.216872615384616	3.837587	4.021961	4.556835	2.7587149999999996	5.635707000000001	3.689065	5.879137	
20000.0	41.879392100000004	40.0	1.5599566132803147	41.618842657142864	35.0	2.0	3.0	41.644730406250005	32.0	41.60353694736843	40.756724	41.644981	42.391757	38.3041745	44.8443065	39.443385	47.310294	
20000.0	8.927768924999997	40.0	1.1239698209158107	8.783445551724137	29.0	4.0	7.0	8.934708906249998	32.0	8.927768924999997	8.129066	8.836789	9.512826	6.053425999999999	11.588466	6.146413	11.136015	
