n	EX	Anzahl	sdv	EXsdv	Anzahl	kleiner	größer	EX10%	Anzahl	EXboxplot	Q025	Q050	Q075	a	b	min	max
1000,0	3,211943125	40,0	1,013653769866126	2,837854411764706	34,0	0,0	6,0	2,9836211875	32,0	2,8787189142857144	2,553057	2,759836	3,243816	1,5169185	4,2799545	2,450627	6,798763	
2000,0	10,087295574999997	40,0	5,084900638672097	8,683492999999999	36,0	0,0	4,0	8,863778374999999	32,0	8,528422714285712	7,494643	8,443717	10,060504	3,6458515	13,909295499999999	7,156305	35,664695	
4000,0	30,09965605	40,0	1,47359233994811	29,72568075757576	33,0	2,0	5,0	29,84574478125	32,0	29,75657608108108	29,072391	29,693371	30,350521	27,155195999999997	32,267716	28,186696	34,839496	
8000,0	122,26817147499996	40,0	1,946298447395954	122,29640959374997	32,0	3,0	5,0	122,41535393749999	32,0	122,44751966666662	120,956193	122,271452	123,710588	116,8246005	127,84218050000001	115,273592	125,240309	
10000,0	215,00096990000003	40,0	10,524815842329911	215,6948981891892	37,0	2,0	1,0	215,49416025000002	32,0	215,54686488235293	213,86365	215,219561	216,931736	209,26152100000002	221,533865	177,078952	257,470476	
