n	EX	Anzahl	sdv	EXsdv	Anzahl	kleiner	größer	EX10%	Anzahl	EXboxplot	Q025	Q050	Q075	a	b	min	max
200000,0	24789,86503795	40,0	2142,4179157075305	25398,83789582143	28,0	9,0	3,0	24861,806355999997	32,0	24789,86503795	22674,546805	25612,123367	26085,97871	17557,398947500005	31203,126567499996	20633,935416	30615,024044	
200000,0	42,153825799999986	40,0	4,000360307062704	41,48255715384615	26,0	6,0	8,0	41,92884893749999	32,0	42,153825799999986	38,899856	41,386973	45,126931	29,5592435	54,4675435	36,287902	51,771407	
200000,0	24716,142006000002	40,0	2143,3431090176455	25325,54765610714	28,0	9,0	3,0	24788,21853909375	32,0	24716,142006000002	22600,44288	25540,210792	26014,590447	17479,2215295	31135,8117975	20560,250171	30543,330092	
200000,0	31,56515695	40,0	3,163104634840025	31,692514310344826	29,0	7,0	4,0	31,34996896875	32,0	31,362708205128204	28,769575	31,264055	33,028083	22,381812999999994	39,415845000000004	25,416928	39,460658	
