n	EX	Anzahl	sdv	EXsdv	Anzahl	kleiner	größer	EX10%	Anzahl	EXboxplot	Q025	Q050	Q075	a	b	min	max
5000,0	26,037475000000008	40,0	15,444615909511176	22,12523737837838	37,0	0,0	3,0	22,25534653125	32,0	21,725534861111115	19,008681	20,494229	24,86733	10,2207075	33,6553035	17,249772	94,725552	
5000,0	1,83464895	40,0	0,8585698509057358	1,5510574571428573	35,0	0,0	5,0	1,6337509999999997	32,0	1,5843678611111112	1,280689	1,633751	1,905509	0,34345900000000007	2,842739	1,180499	4,797224	
5000,0	23,195584	40,0	15,032876072668262	19,435337864864863	37,0	0,0	3,0	19,47612559375	32,0	19,031700777777775	16,487314	17,634845	22,318115	7,741112500000005	31,064316499999997	15,359309	89,09673	
5000,0	1,0041534999999997	40,0	0,7289135849224172	0,8442350263157893	38,0	0,0	2,0	0,8325601562499998	32,0	0,7991199117647058	0,765981	0,810474	0,858487	0,6272220000000001	0,997246	0,701641	4,768094	
