n	EX	Anzahl	sdv	EXsdv	Anzahl	kleiner	größer	EX10%	Anzahl	EXboxplot	Q025	Q050	Q075	a	b	min	max
5000.0	5.527035249999998	40.0	0.7971708138774822	5.282989030303028	33.0	1.0	6.0	5.3939368125	32.0	5.45091892307692	4.904136	5.244074	5.906665	3.4003425000000003	7.410458500000001	4.626616	8.495572	
5000.0	1.2243053	40.0	0.21891537538272637	1.1395181666666665	30.0	2.0	8.0	1.1914438125	32.0	1.2043352307692308	1.060146	1.149132	1.302776	0.6962010000000002	1.666721	0.998689	2.003138	
5000.0	2.6542542	40.0	0.5774354332479606	2.504269555555556	36.0	0.0	4.0	2.5393730000000003	32.0	2.555600868421053	2.296023	2.370283	2.854904	1.4577015	3.6932254999999996	2.211198	5.245994	
5000.0	1.64719525	40.0	0.28659574597896165	1.5130558387096773	31.0	0.0	9.0	1.6047730937500002	32.0	1.64719525	1.435615	1.472105	1.864858	0.7917505000000004	2.5087224999999997	1.381517	2.427901	
