n	EX	Anzahl	sdv	EXsdv	Anzahl	kleiner	größer	EX10%	Anzahl	EXboxplot	Q025	Q050	Q075	a	b	min	max
1000,0	0,21043660000000006	40,0	0,11517613794397691	0,17842477777777782	36,0	0,0	4,0	0,18163234375000004	32,0	0,16149167741935488	0,155245	0,159727	0,189174	0,10435149999999997	0,24006750000000004	0,150443	0,6978	
2000,0	0,35047695000000006	40,0	0,0797219766112049	0,3346226578947369	38,0	0,0	2,0	0,3332060312500001	32,0	0,3346226578947369	0,312731	0,320733	0,360423	0,24119299999999996	0,43196100000000004	0,301527	0,766621	
4000,0	0,700538025	40,0	0,17043422139251957	0,6434404571428571	35,0	0,0	5,0	0,65949021875	32,0	0,6434404571428571	0,618097	0,645947	0,696842	0,4999795000000001	0,8149594999999998	0,568484	1,377996	
8000,0	1,3121063249999998	40,0	0,21960312643634966	1,2424886	35,0	0,0	5,0	1,2674755	32,0	1,2509918888888887	1,154254	1,235237	1,335426	0,8824959999999997	1,6071840000000002	1,112321	2,213118	
16000,0	2,3666503250000006	40,0	0,12407014293321893	2,3369297333333336	30,0	3,0	7,0	2,3586099062500003	32,0	2,352509815789474	2,278096	2,336994	2,413495	2,0749975000000003	2,6165935000000005	2,07868	2,645243	
32000,0	5,028505875	40,0	0,47039943756403385	4,972740433333333	30,0	4,0	6,0	5,00966440625	32,0	4,995719181818181	4,849397	4,96015	5,169169	4,369738999999999	5,648827000000001	3,915688	6,329826	
64000,0	10,068847024999998	40,0	0,9478790774738224	10,269909607142855	28,0	8,0	4,0	10,103943187499999	32,0	10,068847024999998	9,387025	10,231749	10,598897	7,569217	12,416704999999999	7,974459	12,396855	
