% N erw stdv q25 q75 median uwhi owhi boxwh
1 1000.0 0.14480283783783782 0.004348844196737794 0.143081 0.147242 0.144362 0.1368395 0.1534835 0.2
2 2000.0 0.28742502777777773 0.14790786775759895 0.28168 0.294164 0.290004 0.262954 0.31289 0.2
3 4000.0 0.5859369999999999 0.03637687238273791 0.562402 0.612337 0.577447 0.48749949999999986 0.6872395000000001 0.2
4 8000.0 1.2001721999999997 0.4882309851523764 1.148172 1.273646 1.208347 0.9599609999999998 1.4618570000000002 0.2
