n	EX	Anzahl	sdv	EXsdv	Anzahl	kleiner	größer	EX10%	Anzahl	EXboxplot	Q025	Q050	Q075	a	b	min	max
10000.0	16.635529750000007	40.0	1.4349985417693245	16.17610184848485	33.0	1.0	6.0	16.394422093750002	32.0	16.323172108108114	15.769032	16.098087	16.87367	14.112074999999997	18.530627000000003	15.004011	21.932091	
10000.0	2.35577595	40.0	0.3788548449133883	2.2184499655172414	29.0	3.0	8.0	2.3037148750000003	32.0	2.3055749210526315	2.036428	2.228163	2.488398	1.3584729999999996	3.1663530000000004	1.966327	3.402582	
10000.0	10.458722750000002	40.0	1.414026982350032	10.070231	36.0	0.0	4.0	10.170885656250002	32.0	10.070231	9.583567	10.078428	10.53104	8.162357499999999	11.9522495	9.066296	15.887146	
10000.0	3.8186462000000008	40.0	0.6598102951252808	3.8341766875000003	32.0	6.0	2.0	3.7579847500000003	32.0	3.739943102564103	3.250859	3.847831	4.117349	1.9511240000000005	5.417083999999999	2.961495	6.888067	
