n	EX	Anzahl	sdv	EXsdv	Anzahl	kleiner	größer	EX10%	Anzahl	EXboxplot	Q025	Q050	Q075	a	b	min	max
1000.0	0.2339394500000001	40.0	0.04095525292801279	0.21668306060606066	33.0	0.0	7.0	0.22459484375000002	32.0	0.21668306060606066	0.20838	0.216703	0.228226	0.17861100000000002	0.25799500000000003	0.202938	0.364584	
2000.0	0.511091475	40.0	0.06265383747185303	0.4871334705882352	34.0	0.0	6.0	0.49603315624999994	32.0	0.4871334705882352	0.475658	0.480457	0.51663	0.4142	0.578088	0.472136	0.719888	
4000.0	1.1785401500000001	40.0	0.24892672600200547	1.1217421351351353	37.0	0.0	3.0	1.127305375	32.0	1.1217421351351353	1.035819	1.109759	1.190744	0.8034315000000001	1.4231315	1.008612	2.454788	
8000.0	2.7828592999999997	40.0	0.43565059287255653	2.6272970333333334	30.0	2.0	8.0	2.7262669687499996	32.0	2.7199514999999996	2.418619	2.658367	2.942928	1.6321554999999999	3.7293915	2.131816	4.034444	
10000.0	3.769816175	40.0	0.4581448435526088	3.6897745217391305	23.0	8.0	9.0	3.74062975	32.0	3.769816175	3.371534	3.64169	4.105505	2.2705775	5.2064615	3.019431	4.769057	
