% N erw stdv q25 q75 median uwhi owhi boxwh
1 1000.0 0.9747728285714288 1.366156409075165 0.837682 1.17538 0.917065 0.33113499999999996 1.6819270000000002 0.2
2 2000.0 1.0013791250000001 1.028951761871051 0.915784 1.253802 0.996448 0.4087569999999999 1.7608290000000002 0.2
3 4000.0 1.1190900588235295 0.7183750445189715 1.033579 1.255082 1.117443 0.7013245 1.5873365000000002 0.2
4 5000.0 1.280623676470588 0.6068137312099653 1.204507 1.401685 1.237477 0.9087399999999999 1.6974520000000002 0.2
5 8000.0 1.8959072702702702 0.44556149526585836 1.745143 2.04411 1.858136 1.2966925000000005 2.4925604999999997 0.2
6 10000.0 2.283772675675676 0.46955745599022214 2.11389 2.514646 2.221442 1.5127560000000002 3.11578 0.2
7 16000.0 3.442380282051282 0.45033341935841276 3.192281 3.715632 3.32416 2.4072545 4.5006585 0.2
8 20000.0 4.188755108108107 0.5769319925161668 3.878559 4.517464 4.125031 2.9202014999999997 5.4758215 0.2
9 30000.0 6.089215305555555 0.9068570108636422 5.642588 6.584941 5.88746 4.229058500000001 7.9984705 0.2
10 32000.0 6.822745275 0.8734866211213539 6.156657 7.397976 6.527324 4.2946785 9.2599545 0.2
11 40000.0 8.7383543 1.1479873271697993 7.798732 9.225703 8.303196 5.658275500000002 11.366159499999998 0.2
12 50000.0 10.878443925 1.2905189481502082 9.829717 12.197121 10.466381 6.278611000000002 15.748226999999996 0.2
13 64000.0 14.043965600000002 1.432285861107967 12.724953 15.04114 13.842715 9.250672499999997 18.5154205 0.2
14 100000.0 22.437252299999997 2.7226563407540274 20.02338 24.508514 21.489083 13.295678999999996 31.236215000000005 0.2
